﻿TargetImage,PracticeLoop.thisRepN,PracticeLoop.thisTrialN,PracticeLoop.thisN,PracticeLoop.thisIndex,ExperimentLoop.thisRepN,ExperimentLoop.thisTrialN,ExperimentLoop.thisN,ExperimentLoop.thisIndex,thisRow.t,notes,WelcomeIlja.started,welcome_message.started,polygon.started,spacebar_welcome.started,dots.started,sound_1.started,WelcomeIlja.stopped,spacebar_welcome.keys,spacebar_welcome.rt,spacebar_welcome.duration,InstructionsforIlja.started,text.started,key_resp.started,polygon_2.started,image.started,InstructionsforIlja.stopped,key_resp.keys,key_resp.rt,key_resp.duration,Instructions_shape.started,text_3.started,key_resp_3.started,Response_Cross.started,Response_Plus.started,Response_Square.started,Instructions_shape.stopped,key_resp_3.keys,key_resp_3.rt,key_resp_3.duration,trial.started,VisualReminder_Cross.started,VisualReminder_Plus.started,VisualReminder_Square.started,leftfar_Frame.started,leftFrame.started,rightfar_Frame.started,rightFrame.started,target_image.started,target_image.stopped,trial.stopped,keyboard_response.keys,keyboard_response.corr,keyboard_response.rt,keyboard_response.duration,trialRespTimes,FeedBack.started,Feedback.started,FeedBackResp.started,FeedBack.stopped,FeedBackResp.keys,FeedBackResp.rt,FeedBackResp.duration,EndPractice.started,text_4.started,key_resp_4.started,EndPractice.stopped,key_resp_4.keys,key_resp_4.rt,key_resp_4.duration,EndScreen.started,text_2.started,key_resp_2.started,EndScreen.stopped,key_resp_2.keys,key_resp_2.rt,key_resp_2.duration,participant,session,left-handed,age,Do you like this session?,output-path,date,expName,psychopyVersion,frameRate,expStart,
,,,,,,,,,,,0.011257416976150125,0.02985087502747774,0.02985087502747774,0.02985087502747774,0.49456387502141297,0.5019390006821293,1.0483169590006582,space,0.9869662080309354,None,,,,,,,,,,,,,,,,,,,,,,,,,,,,,,,,,,,,,,,,,,,,,,,,,,,,,,,,,01,01,True,,Yes,/Users/alexandergottker/Desktop/NOWA_school/choice_rtt/sourcedata,2024-02-13_16h14.31.055,Crtt_exp,2023.2.3,None,2024-02-13 16h14.44.033275 +0100,
,,,,,,,,,,,,,,,,,,,,,1.052698249986861,1.0661265419912525,1.0661265419912525,1.0661265419912525,1.0661265419912525,1.7794676250196062,space,0.6954577080323361,None,,,,,,,,,,,,,,,,,,,,,,,,,,,,,,,,,,,,,,,,,,,,,,,,01,01,True,,Yes,/Users/alexandergottker/Desktop/NOWA_school/choice_rtt/sourcedata,2024-02-13_16h14.31.055,Crtt_exp,2023.2.3,None,2024-02-13 16h14.44.033275 +0100,
,,,,,,,,,,,,,,,,,,,,,,,,,,,,,,1.7794930000090972,1.788253500009887,1.788253500009887,1.788253500009887,1.788253500009887,1.788253500009887,2.86252212501131,space,1.0641497080214322,None,,,,,,,,,,,,,,,,,,,,,,,,,,,,,,,,,,,,,,01,01,True,,Yes,/Users/alexandergottker/Desktop/NOWA_school/choice_rtt/sourcedata,2024-02-13_16h14.31.055,Crtt_exp,2023.2.3,None,2024-02-13 16h14.44.033275 +0100,
../../stimuli/target_plus.jpg,0,0,0,0,,,,,2.9566787499934435,,,,,,,,,,,,,,,,,,,,,,,,,,,,,,,2.8694216670119204,2.9566787499934435,2.9566787499934435,2.9566787499934435,3.3548071670229547,3.3548071670229547,3.3548071670229547,3.3548071670229547,3.860940166981891,4.051658875017893,4.737983750004787,c,0,1.7788406669860706,None,0.7788406669860706,4.738562666985672,4.753306499973405,4.753306499973405,6.1346585000283085,space,1.375805957999546,None,,,,,,,,,,,,,,,01,01,True,,Yes,/Users/alexandergottker/Desktop/NOWA_school/choice_rtt/sourcedata,2024-02-13_16h14.31.055,Crtt_exp,2023.2.3,None,2024-02-13 16h14.44.033275 +0100,
../../stimuli/target_plus.jpg,0,1,1,4,,,,,6.200526333996095,,,,,,,,,,,,,,,,,,,,,,,,,,,,,,,6.135221708973404,6.200526333996095,6.200526333996095,6.200526333996095,,,,,,,6.530400583986193,v,0,0.33635024999966845,None,-0.6636497500003316,6.531112542026676,6.546983834006824,6.546983834006824,8.921034459024668,space,2.3713506659842096,None,,,,,,,,,,,,,,,01,01,True,,Yes,/Users/alexandergottker/Desktop/NOWA_school/choice_rtt/sourcedata,2024-02-13_16h14.31.055,Crtt_exp,2023.2.3,None,2024-02-13 16h14.44.033275 +0100,
../../stimuli/target_cross.jpg,0,2,2,3,,,,,8.981554917001631,,,,,,,,,,,,,,,,,,,,,,,,,,,,,,,8.921461542020552,8.981554917001631,8.981554917001631,8.981554917001631,9.421117292018607,9.421117292018607,9.421117292018607,9.421117292018607,,,9.42239945899928,b,0,0.44518841698300093,None,-1.354811583016999,9.422714499989524,9.43764691700926,9.43764691700926,10.112323999986984,space,0.6660536249983124,None,,,,,,,,,,,,,,,01,01,True,,Yes,/Users/alexandergottker/Desktop/NOWA_school/choice_rtt/sourcedata,2024-02-13_16h14.31.055,Crtt_exp,2023.2.3,None,2024-02-13 16h14.44.033275 +0100,
../../stimuli/target_square.jpg,0,3,3,2,,,,,10.170064083999023,,,,,,,,,,,,,,,,,,,,,,,,,,,,,,,10.112742667028215,10.170064083999023,10.170064083999023,10.170064083999023,,,,,,,10.564047541993205,v,1,0.3976105829933658,None,-1.2023894170066343,10.564577542012557,10.57930695899995,10.57930695899995,10.99650891701458,space,0.40962187497643754,None,,,,,,,,,,,,,,,01,01,True,,Yes,/Users/alexandergottker/Desktop/NOWA_school/choice_rtt/sourcedata,2024-02-13_16h14.31.055,Crtt_exp,2023.2.3,None,2024-02-13 16h14.44.033275 +0100,
../../stimuli/target_cross.jpg,0,4,4,1,,,,,11.05814008397283,,,,,,,,,,,,,,,,,,,,,,,,,,,,,,,10.997410791984294,11.05814008397283,11.05814008397283,11.05814008397283,11.501184375025332,11.501184375025332,11.501184375025332,11.501184375025332,,,11.490024416998494,c,1,0.42969466699287295,None,-1.370305333007127,11.490424041985534,11.501184375025332,11.501184375025332,11.912502542021684,space,0.40374891698593274,None,,,,,,,,,,,,,,,01,01,True,,Yes,/Users/alexandergottker/Desktop/NOWA_school/choice_rtt/sourcedata,2024-02-13_16h14.31.055,Crtt_exp,2023.2.3,None,2024-02-13 16h14.44.033275 +0100,
../../stimuli/target_square.jpg,0,5,5,5,,,,,11.969691624981351,,,,,,,,,,,,,,,,,,,,,,,,,,,,,,,11.91291795897996,11.969691624981351,11.969691624981351,11.969691624981351,,,,,,,12.336820041993633,v,1,0.3733781250193715,None,-1.4266218749806285,12.33714662498096,12.350708750018384,12.350708750018384,12.76937066699611,space,0.41587312502088025,None,,,,,,,,,,,,,,,01,01,True,,Yes,/Users/alexandergottker/Desktop/NOWA_school/choice_rtt/sourcedata,2024-02-13_16h14.31.055,Crtt_exp,2023.2.3,None,2024-02-13 16h14.44.033275 +0100,
,,,,,,,,,,,,,,,,,,,,,,,,,,,,,,,,,,,,,,,,,,,,,,,,,,,,,,,,,,,,,,,12.76973104197532,12.777364959008992,12.777364959008992,15.138728749996517,space,2.3515006249654107,None,,,,,,,,01,01,True,,Yes,/Users/alexandergottker/Desktop/NOWA_school/choice_rtt/sourcedata,2024-02-13_16h14.31.055,Crtt_exp,2023.2.3,None,2024-02-13 16h14.44.033275 +0100,
../../stimuli/target_square.jpg,,,,,0,0,0,5,15.197368666995317,,,,,,,,,,,,,,,,,,,,,,,,,,,,,,,15.141791666974314,15.197368666995317,15.197368666995317,15.197368666995317,15.63799558399478,15.63799558399478,15.63799558399478,15.63799558399478,16.335591292008758,16.52844833402196,17.146095208998304,b,0,1.9543045000173151,None,0.7543045000173152,,,,,,,,,,,,,,,,,,,,,,01,01,True,,Yes,/Users/alexandergottker/Desktop/NOWA_school/choice_rtt/sourcedata,2024-02-13_16h14.31.055,Crtt_exp,2023.2.3,None,2024-02-13 16h14.44.033275 +0100,
../../stimuli/target_cross.jpg,,,,,0,1,1,3,17.203315833990928,,,,,,,,,,,,,,,,,,,,,,,,,,,,,,,17.146798542002216,17.203315833990928,17.203315833990928,17.203315833990928,,,,,,,17.379466874990612,b,0,0.18013454199535772,None,-1.6198654580046423,,,,,,,,,,,,,,,,,,,,,,01,01,True,,Yes,/Users/alexandergottker/Desktop/NOWA_school/choice_rtt/sourcedata,2024-02-13_16h14.31.055,Crtt_exp,2023.2.3,None,2024-02-13 16h14.44.033275 +0100,
../../stimuli/target_square.jpg,,,,,0,2,2,5,17.43569541699253,,,,,,,,,,,,,,,,,,,,,,,,,,,,,,,17.379946917004418,17.43569541699253,17.43569541699253,17.43569541699253,17.870943624991924,17.870943624991924,17.870943624991924,17.870943624991924,19.17810245900182,19.36801633401774,19.663268958975095,v,1,2.2343441660050303,None,0.43434416600503023,,,,,,,,,,,,,,,,,,,,,,01,01,True,,Yes,/Users/alexandergottker/Desktop/NOWA_school/choice_rtt/sourcedata,2024-02-13_16h14.31.055,Crtt_exp,2023.2.3,None,2024-02-13 16h14.44.033275 +0100,
../../stimuli/target_plus.jpg,,,,,0,3,3,4,19.72028433397645,,,,,,,,,,,,,,,,,,,,,,,,,,,,,,,19.663756166992243,19.72028433397645,19.72028433397645,19.72028433397645,20.161557791987434,20.161557791987434,20.161557791987434,20.161557791987434,21.461561875010375,21.65156924998155,21.747328417026438,b,1,2.0292639170074835,None,0.2292639170074835,,,,,,,,,,,,,,,,,,,,,,01,01,True,,Yes,/Users/alexandergottker/Desktop/NOWA_school/choice_rtt/sourcedata,2024-02-13_16h14.31.055,Crtt_exp,2023.2.3,None,2024-02-13 16h14.44.033275 +0100,
../../stimuli/target_square.jpg,,,,,0,4,4,2,21.80385316698812,,,,,,,,,,,,,,,,,,,,,,,,,,,,,,,21.747848291997798,21.80385316698812,21.80385316698812,21.80385316698812,22.24497679201886,22.24497679201886,22.24497679201886,22.24497679201886,22.944111499993596,23.13533716701204,23.27241595898522,v,1,1.466480250004679,None,0.266480250004679,,,,,,,,,,,,,,,,,,,,,,01,01,True,,Yes,/Users/alexandergottker/Desktop/NOWA_school/choice_rtt/sourcedata,2024-02-13_16h14.31.055,Crtt_exp,2023.2.3,None,2024-02-13 16h14.44.033275 +0100,
../../stimuli/target_cross.jpg,,,,,0,5,5,1,23.32757370901527,,,,,,,,,,,,,,,,,,,,,,,,,,,,,,,23.272913500026334,23.32757370901527,23.32757370901527,23.32757370901527,23.770370459009428,23.770370459009428,23.770370459009428,23.770370459009428,24.870089875010308,25.061625292000826,25.179743291984778,c,1,1.8500851669814438,None,0.2500851669814437,,,,,,,,,,,,,,,,,,,,,,01,01,True,,Yes,/Users/alexandergottker/Desktop/NOWA_school/choice_rtt/sourcedata,2024-02-13_16h14.31.055,Crtt_exp,2023.2.3,None,2024-02-13 16h14.44.033275 +0100,
../../stimuli/target_plus.jpg,,,,,1,0,6,0,25.23591549997218,,,,,,,,,,,,,,,,,,,,,,,,,,,,,,,25.180287417024374,25.23591549997218,25.23591549997218,25.23591549997218,25.678328584006522,25.678328584006522,25.678328584006522,25.678328584006522,26.978395292011555,27.168364792014472,27.429645999975037,v,0,2.2003221660270356,None,0.4003221660270355,,,,,,,,,,,,,,,,,,,,,,01,01,True,,Yes,/Users/alexandergottker/Desktop/NOWA_school/choice_rtt/sourcedata,2024-02-13_16h14.31.055,Crtt_exp,2023.2.3,None,2024-02-13 16h14.44.033275 +0100,
../../stimuli/target_cross.jpg,,,,,1,1,7,3,27.48656500002835,,,,,,,,,,,,,,,,,,,,,,,,,,,,,,,27.43013345898362,27.48656500002835,27.48656500002835,27.48656500002835,27.921114291995764,27.921114291995764,27.921114291995764,27.921114291995764,28.62872520898236,28.82096724997973,29.195698958996218,b,0,1.7122347499825992,None,0.5122347499825992,,,,,,,,,,,,,,,,,,,,,,01,01,True,,Yes,/Users/alexandergottker/Desktop/NOWA_school/choice_rtt/sourcedata,2024-02-13_16h14.31.055,Crtt_exp,2023.2.3,None,2024-02-13 16h14.44.033275 +0100,
../../stimuli/target_square.jpg,,,,,1,2,8,2,29.25218016700819,,,,,,,,,,,,,,,,,,,,,,,,,,,,,,,29.196299291972537,29.25218016700819,29.25218016700819,29.25218016700819,29.69525429198984,29.69525429198984,29.69525429198984,29.69525429198984,30.38623591698706,30.57842229201924,30.7127314999816,c,0,1.4617070410167798,None,0.2617070410167799,,,,,,,,,,,,,,,,,,,,,,01,01,True,,Yes,/Users/alexandergottker/Desktop/NOWA_school/choice_rtt/sourcedata,2024-02-13_16h14.31.055,Crtt_exp,2023.2.3,None,2024-02-13 16h14.44.033275 +0100,
../../stimuli/target_plus.jpg,,,,,1,3,9,4,30.769042500003707,,,,,,,,,,,,,,,,,,,,,,,,,,,,,,,30.713214083982166,30.769042500003707,30.769042500003707,30.769042500003707,31.203620875021443,31.203620875021443,31.203620875021443,31.203620875021443,32.31178729201201,32.500750291976146,32.60367879201658,v,0,1.8414395420113578,None,0.24143954201135776,,,,,,,,,,,,,,,,,,,,,,01,01,True,,Yes,/Users/alexandergottker/Desktop/NOWA_school/choice_rtt/sourcedata,2024-02-13_16h14.31.055,Crtt_exp,2023.2.3,None,2024-02-13 16h14.44.033275 +0100,
../../stimuli/target_cross.jpg,,,,,1,4,10,1,32.660850499989465,,,,,,,,,,,,,,,,,,,,,,,,,,,,,,,32.60416962497402,32.660850499989465,32.660850499989465,32.660850499989465,33.10439212498022,33.10439212498022,33.10439212498022,33.10439212498022,34.203690792026464,34.40214016701793,34.66286995902192,b,0,2.0065517500042915,None,0.40655175000429145,,,,,,,,,,,,,,,,,,,,,,01,01,True,,Yes,/Users/alexandergottker/Desktop/NOWA_school/choice_rtt/sourcedata,2024-02-13_16h14.31.055,Crtt_exp,2023.2.3,None,2024-02-13 16h14.44.033275 +0100,
../../stimuli/target_plus.jpg,,,,,1,5,11,0,34.71941441699164,,,,,,,,,,,,,,,,,,,,,,,,,,,,,,,34.66339645901462,34.71941441699164,34.71941441699164,34.71941441699164,35.153966458979994,35.153966458979994,35.153966458979994,35.153966458979994,36.05409295897698,36.251797374978196,36.4535414170241,c,0,1.739704207982868,None,0.33970420798286804,,,,,,,,,,,,,,,,,,,,,,01,01,True,,Yes,/Users/alexandergottker/Desktop/NOWA_school/choice_rtt/sourcedata,2024-02-13_16h14.31.055,Crtt_exp,2023.2.3,None,2024-02-13 16h14.44.033275 +0100,
,,,,,,,,,,,,,,,,,,,,,,,,,,,,,,,,,,,,,,,,,,,,,,,,,,,,,,,,,,,,,,,,,,,,,,36.453910875017755,36.461331375001464,36.461331375001464,37.99760366702685,space,1.5268966669682413,None,01,01,True,,Yes,/Users/alexandergottker/Desktop/NOWA_school/choice_rtt/sourcedata,2024-02-13_16h14.31.055,Crtt_exp,2023.2.3,None,2024-02-13 16h14.44.033275 +0100,
