﻿TargetImage,PracticeLoop.thisRepN,PracticeLoop.thisTrialN,PracticeLoop.thisN,PracticeLoop.thisIndex,thisRow.t,notes,WelcomeIlja.started,welcome_message.started,polygon.started,spacebar_welcome.started,dots.started,sound_1.started,WelcomeIlja.stopped,spacebar_welcome.keys,spacebar_welcome.rt,spacebar_welcome.duration,InstructionsforIlja.started,text.started,key_resp.started,polygon_2.started,image.started,InstructionsforIlja.stopped,key_resp.keys,key_resp.rt,key_resp.duration,Instructions_shape.started,text_3.started,key_resp_3.started,Response_Cross.started,Response_Plus.started,Response_Square.started,Instructions_shape.stopped,key_resp_3.keys,key_resp_3.rt,key_resp_3.duration,trial.started,VisualReminder_Cross.started,VisualReminder_Plus.started,VisualReminder_Square.started,leftfar_Frame.started,leftFrame.started,rightfar_Frame.started,rightFrame.started,target_image.started,target_image.stopped,trial.stopped,keyboard_response.keys,keyboard_response.corr,keyboard_response.rt,keyboard_response.duration,trialRespTimes,FeedBack.started,Feedback.started,FeedBackResp.started,FeedBack.stopped,FeedBackResp.keys,FeedBackResp.rt,FeedBackResp.duration,EndScreen.started,text_2.started,key_resp_2.started,EndScreen.stopped,key_resp_2.keys,key_resp_2.rt,key_resp_2.duration,participant,session,left-handed,age,Do you like this session?,output-path,date,expName,psychopyVersion,frameRate,expStart,
,,,,,,,0.011999415990430862,0.02975916600553319,0.02975916600553319,0.02975916600553319,0.508222582982853,0.507785104116192,1.1105341659858823,space,1.0520547920023091,None,,,,,,,,,,,,,,,,,,,,,,,,,,,,,,,,,,,,,,,,,,,,,,,,,,03,01,True,,Yes,/Users/alexandergottker/Desktop/NOWA_school/choice_rtt/sourcedata,2024-02-13_15h50.49.818,Crtt_exp,2023.2.3,None,2024-02-13 15h51.02.255526 +0100,
,,,,,,,,,,,,,,,,,1.1154762909864075,1.1300616660155356,1.1300616660155356,1.1300616660155356,1.1300616660155356,2.0074974999879487,space,0.8620153749943711,None,,,,,,,,,,,,,,,,,,,,,,,,,,,,,,,,,,,,,,,,,03,01,True,,Yes,/Users/alexandergottker/Desktop/NOWA_school/choice_rtt/sourcedata,2024-02-13_15h50.49.818,Crtt_exp,2023.2.3,None,2024-02-13 15h51.02.255526 +0100,
,,,,,,,,,,,,,,,,,,,,,,,,,,2.007522790983785,2.0163414999842644,2.0163414999842644,2.0163414999842644,2.0163414999842644,2.0163414999842644,2.9430959580349736,space,0.9178115000249818,None,,,,,,,,,,,,,,,,,,,,,,,,,,,,,,,03,01,True,,Yes,/Users/alexandergottker/Desktop/NOWA_school/choice_rtt/sourcedata,2024-02-13_15h50.49.818,Crtt_exp,2023.2.3,None,2024-02-13 15h51.02.255526 +0100,
../../stimuli/target_cross.jpg,0,0,0,3,3.0349856659886427,,,,,,,,,,,,,,,,,,,,,,,,,,,,,,,2.95033520803554,3.0349856659886427,3.0349856659886427,3.0349856659886427,3.449488750018645,3.449488750018645,3.449488750018645,3.449488750018645,3.949489833030384,4.156596957996953,4.634410500002559,v,0,1.6046689589857124,None,0.6046689589857124,4.634931624983437,4.651634250010829,4.651634250010829,5.727351000008639,space,1.0660214999807067,None,,,,,,,,03,01,True,,Yes,/Users/alexandergottker/Desktop/NOWA_school/choice_rtt/sourcedata,2024-02-13_15h50.49.818,Crtt_exp,2023.2.3,None,2024-02-13 15h51.02.255526 +0100,
../../stimuli/target_plus.jpg,0,1,1,4,5.793879125034437,,,,,,,,,,,,,,,,,,,,,,,,,,,,,,,5.727950458007399,5.793879125034437,5.793879125034437,5.793879125034437,6.2333875829936005,6.2333875829936005,6.2333875829936005,6.2333875829936005,,,6.657772290986031,c,0,0.8661412499495782,None,-0.9338587500504218,6.658087040996179,6.673355165985413,6.673355165985413,8.850793791003525,space,2.173159250000026,None,,,,,,,,03,01,True,,Yes,/Users/alexandergottker/Desktop/NOWA_school/choice_rtt/sourcedata,2024-02-13_15h50.49.818,Crtt_exp,2023.2.3,None,2024-02-13 15h51.02.255526 +0100,
../../stimuli/target_plus.jpg,0,2,2,0,8.909978458017576,,,,,,,,,,,,,,,,,,,,,,,,,,,,,,,8.851224791025743,8.909978458017576,8.909978458017576,8.909978458017576,9.358952415990643,9.358952415990643,9.358952415990643,9.358952415990643,10.058520333026536,10.256746708007995,10.85134954098612,v,0,1.94945708301384,None,0.7494570830138401,10.851668791030534,10.865665165998507,10.865665165998507,12.101827665988822,space,1.2280554169556126,None,,,,,,,,03,01,True,,Yes,/Users/alexandergottker/Desktop/NOWA_school/choice_rtt/sourcedata,2024-02-13_15h50.49.818,Crtt_exp,2023.2.3,None,2024-02-13 15h51.02.255526 +0100,
../../stimuli/target_cross.jpg,0,3,3,1,12.161860916006844,,,,,,,,,,,,,,,,,,,,,,,,,,,,,,,12.102698083035648,12.161860916006844,12.161860916006844,12.161860916006844,12.610017583006993,12.610017583006993,12.610017583006993,12.610017583006993,,,13.23439179098932,c,1,1.0724760000011884,None,-0.5275239999988117,13.234703375026584,13.2490624160273,13.2490624160273,14.084707875037566,space,0.829228124988731,None,,,,,,,,03,01,True,,Yes,/Users/alexandergottker/Desktop/NOWA_school/choice_rtt/sourcedata,2024-02-13_15h50.49.818,Crtt_exp,2023.2.3,None,2024-02-13 15h51.02.255526 +0100,
../../stimuli/target_square.jpg,0,4,4,2,14.143437332997564,,,,,,,,,,,,,,,,,,,,,,,,,,,,,,,14.085129916027654,14.143437332997564,14.143437332997564,14.143437332997564,14.593291166005656,14.593291166005656,14.593291166005656,14.593291166005656,15.092628500016872,15.300391708035022,15.516926000011154,b,0,1.3726136250188574,None,0.3726136250188574,15.51729895803146,15.528580291022081,15.528580291022081,16.242684208031278,space,0.7124977500061505,None,,,,,,,,03,01,True,,Yes,/Users/alexandergottker/Desktop/NOWA_school/choice_rtt/sourcedata,2024-02-13_15h50.49.818,Crtt_exp,2023.2.3,None,2024-02-13 15h51.02.255526 +0100,
../../stimuli/target_square.jpg,0,5,5,5,16.298983125016093,,,,,,,,,,,,,,,,,,,,,,,,,,,,,,,16.24317124998197,16.298983125016093,16.298983125016093,16.298983125016093,16.749880750023294,16.749880750023294,16.749880750023294,16.749880750023294,17.443903291015886,17.649942375021055,17.934671791037545,v,1,1.634345458005555,None,0.434345458005555,17.935027832980268,17.94809141603764,17.94809141603764,18.55078016599873,space,0.598239042039495,None,,,,,,,,03,01,True,,Yes,/Users/alexandergottker/Desktop/NOWA_school/choice_rtt/sourcedata,2024-02-13_15h50.49.818,Crtt_exp,2023.2.3,None,2024-02-13 15h51.02.255526 +0100,
,,,,,,,,,,,,,,,,,,,,,,,,,,,,,,,,,,,,,,,,,,,,,,,,,,,,,,,,,,,18.551070625020657,18.55842004099395,18.55842004099395,19.29009441600647,space,0.7290194160304964,None,03,01,True,,Yes,/Users/alexandergottker/Desktop/NOWA_school/choice_rtt/sourcedata,2024-02-13_15h50.49.818,Crtt_exp,2023.2.3,None,2024-02-13 15h51.02.255526 +0100,
