﻿TargetImage,PracticeLoop.thisRepN,PracticeLoop.thisTrialN,PracticeLoop.thisN,PracticeLoop.thisIndex,thisRow.t,notes,WelcomeIlja.started,welcome_message.started,polygon.started,spacebar_welcome.started,dots.started,sound_1.started,WelcomeIlja.stopped,spacebar_welcome.keys,spacebar_welcome.rt,spacebar_welcome.duration,InstructionsforIlja.started,text.started,key_resp.started,polygon_2.started,image.started,InstructionsforIlja.stopped,key_resp.keys,key_resp.rt,key_resp.duration,Instructions_shape.started,text_3.started,key_resp_3.started,Response_Cross.started,Response_Plus.started,Response_Square.started,Instructions_shape.stopped,key_resp_3.keys,key_resp_3.rt,key_resp_3.duration,trial.started,VisualReminder_Cross.started,VisualReminder_Plus.started,VisualReminder_Square.started,leftfar_Frame.started,leftFrame.started,rightfar_Frame.started,rightFrame.started,target_image.started,target_image.stopped,trial.stopped,keyboard_response.keys,keyboard_response.corr,keyboard_response.rt,keyboard_response.duration,trialRespTimes,FeedBack.started,Feedback.started,FeedBackResp.started,FeedBack.stopped,FeedBackResp.keys,FeedBackResp.rt,FeedBackResp.duration,EndScreen.started,text_2.started,key_resp_2.started,EndScreen.stopped,key_resp_2.keys,key_resp_2.rt,key_resp_2.duration,participant,session,left-handed,age,Do you like this session?,output-path,date,expName,psychopyVersion,frameRate,expStart,
,,,,,,,0.01375358400400728,0.03393204201711342,0.03393204201711342,0.03393204201711342,0.49346154200611636,0.4998598336863021,2.788668667024467,space,2.7278933330089785,None,,,,,,,,,,,,,,,,,,,,,,,,,,,,,,,,,,,,,,,,,,,,,,,,,,05,03,True,,Yes,/Users/alexandergottker/Desktop/NOWA_school/choice_rtt/sourcedata,2024-02-13_15h54.27.034,Crtt_exp,2023.2.3,None,2024-02-13 15h54.41.130684 +0100,
,,,,,,,,,,,,,,,,,2.793549875030294,2.8070911670220084,2.8070911670220084,2.8070911670220084,2.8070911670220084,3.602274709031917,space,0.7898188330000266,None,,,,,,,,,,,,,,,,,,,,,,,,,,,,,,,,,,,,,,,,,05,03,True,,Yes,/Users/alexandergottker/Desktop/NOWA_school/choice_rtt/sourcedata,2024-02-13_15h54.27.034,Crtt_exp,2023.2.3,None,2024-02-13 15h54.41.130684 +0100,
,,,,,,,,,,,,,,,,,,,,,,,,,,3.6023004589951597,3.6192009589867666,3.6192009589867666,3.6192009589867666,3.6192009589867666,3.6192009589867666,4.2380555419949815,space,0.6089245839975774,None,,,,,,,,,,,,,,,,,,,,,,,,,,,,,,,05,03,True,,Yes,/Users/alexandergottker/Desktop/NOWA_school/choice_rtt/sourcedata,2024-02-13_15h54.27.034,Crtt_exp,2023.2.3,None,2024-02-13 15h54.41.130684 +0100,
../../stimuli/target_plus.jpg,0,0,0,0,4.328316833998542,,,,,,,,,,,,,,,,,,,,,,,,,,,,,,,4.245331458980218,4.328316833998542,4.328316833998542,4.328316833998542,4.73677833401598,4.73677833401598,4.73677833401598,4.73677833401598,5.835573208983988,6.034103624988347,6.411190334009007,v,0,2.083716999972239,None,0.48371699997223905,6.411708542029373,6.428542500012554,6.428542500012554,8.712887209025212,space,2.2823362500057556,None,,,,,,,,05,03,True,,Yes,/Users/alexandergottker/Desktop/NOWA_school/choice_rtt/sourcedata,2024-02-13_15h54.27.034,Crtt_exp,2023.2.3,None,2024-02-13 15h54.41.130684 +0100,
../../stimuli/target_cross.jpg,0,1,1,1,8.7828524170327,,,,,,,,,,,,,,,,,,,,,,,,,,,,,,,8.713493791990913,8.7828524170327,8.7828524170327,8.7828524170327,9.209547209029552,9.209547209029552,9.209547209029552,9.209547209029552,10.110359166981652,10.300344459014013,10.638922541984357,c,1,1.856343166960869,None,0.4563431669608691,10.639262999990024,10.652310584031511,10.652310584031511,11.59599674999481,space,0.9341176669695415,None,,,,,,,,05,03,True,,Yes,/Users/alexandergottker/Desktop/NOWA_school/choice_rtt/sourcedata,2024-02-13_15h54.27.034,Crtt_exp,2023.2.3,None,2024-02-13 15h54.41.130684 +0100,
../../stimuli/target_square.jpg,0,2,2,5,11.655942959012464,,,,,,,,,,,,,,,,,,,,,,,,,,,,,,,11.596921792021021,11.655942959012464,11.655942959012464,11.655942959012464,12.093419875018299,12.093419875018299,12.093419875018299,12.093419875018299,12.793657417001668,12.982993500016164,13.112483666976914,v,1,1.4556589160347357,None,0.2556589160347358,13.112835749983788,13.125223124981858,13.125223124981858,13.650850042002276,space,0.5204394169850275,None,,,,,,,,05,03,True,,Yes,/Users/alexandergottker/Desktop/NOWA_school/choice_rtt/sourcedata,2024-02-13_15h54.27.034,Crtt_exp,2023.2.3,None,2024-02-13 15h54.41.130684 +0100,
../../stimuli/target_plus.jpg,0,3,3,4,13.70599550002953,,,,,,,,,,,,,,,,,,,,,,,,,,,,,,,13.651259167003445,13.70599550002953,13.70599550002953,13.70599550002953,14.144074250012636,14.144074250012636,14.144074250012636,14.144074250012636,15.044248917023651,15.234181459003594,15.311826209013816,b,1,1.6050258750328794,None,0.2050258750328795,15.312139125016984,15.324662459024694,15.324662459024694,15.895091000013053,space,0.5647810419904999,None,,,,,,,,05,03,True,,Yes,/Users/alexandergottker/Desktop/NOWA_school/choice_rtt/sourcedata,2024-02-13_15h54.27.034,Crtt_exp,2023.2.3,None,2024-02-13 15h54.41.130684 +0100,
../../stimuli/target_cross.jpg,0,4,4,3,15.950998875021469,,,,,,,,,,,,,,,,,,,,,,,,,,,,,,,15.895560792007018,15.950998875021469,15.950998875021469,15.950998875021469,16.39279016701039,16.39279016701039,16.39279016701039,16.39279016701039,16.893819709017407,17.084234084002674,17.234997917024884,b,0,1.2865043749916367,None,0.2865043749916367,17.235313416982535,17.248849708994385,17.248849708994385,17.81157787499251,space,0.554945666983258,None,,,,,,,,05,03,True,,Yes,/Users/alexandergottker/Desktop/NOWA_school/choice_rtt/sourcedata,2024-02-13_15h54.27.034,Crtt_exp,2023.2.3,None,2024-02-13 15h54.41.130684 +0100,
../../stimuli/target_square.jpg,0,5,5,2,17.866648708994035,,,,,,,,,,,,,,,,,,,,,,,,,,,,,,,17.811988083994947,17.866648708994035,17.866648708994035,17.866648708994035,18.328069833980408,18.328069833980408,18.328069833980408,18.328069833980408,18.810571084031835,19.000574917008635,19.061914667021483,v,1,1.193063875020016,None,0.19306387502001598,19.062237875012215,19.076044249988627,19.076044249988627,19.56744879198959,space,0.4863483749795705,None,,,,,,,,05,03,True,,Yes,/Users/alexandergottker/Desktop/NOWA_school/choice_rtt/sourcedata,2024-02-13_15h54.27.034,Crtt_exp,2023.2.3,None,2024-02-13 15h54.41.130684 +0100,
,,,,,,,,,,,,,,,,,,,,,,,,,,,,,,,,,,,,,,,,,,,,,,,,,,,,,,,,,,,19.567747458990198,19.5773370420211,19.5773370420211,21.080242709023878,space,1.5006744589773007,None,05,03,True,,Yes,/Users/alexandergottker/Desktop/NOWA_school/choice_rtt/sourcedata,2024-02-13_15h54.27.034,Crtt_exp,2023.2.3,None,2024-02-13 15h54.41.130684 +0100,
