﻿TargetImage,PracticeLoop.thisRepN,PracticeLoop.thisTrialN,PracticeLoop.thisN,PracticeLoop.thisIndex,thisRow.t,notes,WelcomeIlja.started,welcome_message.started,polygon.started,spacebar_welcome.started,dots.started,sound_1.started,WelcomeIlja.stopped,spacebar_welcome.keys,spacebar_welcome.rt,spacebar_welcome.duration,InstructionsforIlja.started,text.started,key_resp.started,polygon_2.started,image.started,InstructionsforIlja.stopped,key_resp.keys,key_resp.rt,key_resp.duration,Instructions_shape.started,text_3.started,key_resp_3.started,Response_Cross.started,Response_Plus.started,Response_Square.started,Instructions_shape.stopped,key_resp_3.keys,key_resp_3.rt,key_resp_3.duration,trial.started,VisualReminder_Cross.started,VisualReminder_Plus.started,VisualReminder_Square.started,leftfar_Frame.started,leftFrame.started,rightfar_Frame.started,rightFrame.started,target_image.started,target_image.stopped,trial.stopped,keyboard_response.keys,keyboard_response.corr,keyboard_response.rt,keyboard_response.duration,trialRespTimes,FeedBack.started,Feedback.started,FeedBackResp.started,FeedBack.stopped,FeedBackResp.keys,FeedBackResp.rt,FeedBackResp.duration,EndScreen.started,text_2.started,key_resp_2.started,EndScreen.stopped,key_resp_2.keys,key_resp_2.rt,key_resp_2.duration,participant,session,left-handed,age,Do you like this session?,output-path,date,expName,psychopyVersion,frameRate,expStart,
,,,,,,,0.014694457990117371,0.03309208300197497,0.03309208300197497,0.03309208300197497,0.4977988329483196,0.5032484996520604,1.7022412919905037,space,1.6373915830045007,None,,,,,,,,,,,,,,,,,,,,,,,,,,,,,,,,,,,,,,,,,,,,,,,,,,06,07,True,,Yes,/Users/alexandergottker/Desktop/NOWA_school/choice_rtt/sourcedata,2024-02-13_16h00.25.018,Crtt_exp,2023.2.3,120.30069105192472,2024-02-13 16h00.39.298995 +0100,
,,,,,,,,,,,,,,,,,1.707194457994774,1.7213238749536686,1.7213238749536686,1.7213238749536686,1.7213238749536686,2.1539563330006786,space,0.4165549589670263,None,,,,,,,,,,,,,,,,,,,,,,,,,,,,,,,,,,,,,,,,,06,07,True,,Yes,/Users/alexandergottker/Desktop/NOWA_school/choice_rtt/sourcedata,2024-02-13_16h00.25.018,Crtt_exp,2023.2.3,120.30069105192472,2024-02-13 16h00.39.298995 +0100,
,,,,,,,,,,,,,,,,,,,,,,,,,,2.1539796669967473,2.16192029195372,2.16192029195372,2.16192029195372,2.16192029195372,2.16192029195372,3.371936041978188,space,1.2045199580024928,None,,,,,,,,,,,,,,,,,,,,,,,,,,,,,,,06,07,True,,Yes,/Users/alexandergottker/Desktop/NOWA_school/choice_rtt/sourcedata,2024-02-13_16h00.25.018,Crtt_exp,2023.2.3,120.30069105192472,2024-02-13 16h00.39.298995 +0100,
../../stimuli/target_plus.jpg,0,0,0,4,3.4684062500018626,,,,,,,,,,,,,,,,,,,,,,,,,,,,,,,3.3836757499957457,3.4684062500018626,3.4684062500018626,3.4684062500018626,3.878276041999925,3.878276041999925,3.878276041999925,3.878276041999925,4.369844666973222,4.560184249945451,6.239461041986942,c,0,2.778515874990262,None,1.778515874990262,6.240153457969427,6.259695666958578,6.259695666958578,9.105753624986392,space,2.8340638329973444,None,,,,,,,,06,07,True,,Yes,/Users/alexandergottker/Desktop/NOWA_school/choice_rtt/sourcedata,2024-02-13_16h00.25.018,Crtt_exp,2023.2.3,120.30069105192472,2024-02-13 16h00.39.298995 +0100,
../../stimuli/target_cross.jpg,0,1,1,3,9.181256624986418,,,,,,,,,,,,,,,,,,,,,,,,,,,,,,,9.107033374952152,9.181256624986418,9.181256624986418,9.181256624986418,9.603445082961116,9.603445082961116,9.603445082961116,9.603445082961116,,,9.889870541985147,v,0,0.715927165991161,None,-1.084072834008839,9.89020475000143,9.90627116698306,9.90627116698306,10.838231666944921,space,0.9261537499842234,None,,,,,,,,06,07,True,,Yes,/Users/alexandergottker/Desktop/NOWA_school/choice_rtt/sourcedata,2024-02-13_16h00.25.018,Crtt_exp,2023.2.3,120.30069105192472,2024-02-13 16h00.39.298995 +0100,
../../stimuli/target_cross.jpg,0,2,2,1,10.896835624997038,,,,,,,,,,,,,,,,,,,,,,,,,,,,,,,10.838653457991313,10.896835624997038,10.896835624997038,10.896835624997038,11.330110749986488,11.330110749986488,11.330110749986488,11.330110749986488,,,11.830468125001062,b,0,0.9322981250006706,None,-0.2677018749993294,11.830788749968633,11.843164874997456,11.843164874997456,13.578096249955706,space,1.7319112080149353,None,,,,,,,,06,07,True,,Yes,/Users/alexandergottker/Desktop/NOWA_school/choice_rtt/sourcedata,2024-02-13_16h00.25.018,Crtt_exp,2023.2.3,120.30069105192472,2024-02-13 16h00.39.298995 +0100,
../../stimuli/target_square.jpg,0,3,3,5,13.63644591695629,,,,,,,,,,,,,,,,,,,,,,,,,,,,,,,13.578571832971647,13.63644591695629,13.63644591695629,13.63644591695629,14.069337708002422,14.069337708002422,14.069337708002422,14.069337708002422,14.778810457966756,14.975579291989561,15.571297499991488,c,0,1.9392703330377117,None,0.7392703330377117,15.571649332996458,15.585390832973644,15.585390832973644,16.196378291992005,space,0.6074256660067476,None,,,,,,,,06,07,True,,Yes,/Users/alexandergottker/Desktop/NOWA_school/choice_rtt/sourcedata,2024-02-13_16h00.25.018,Crtt_exp,2023.2.3,120.30069105192472,2024-02-13 16h00.39.298995 +0100,
../../stimuli/target_plus.jpg,0,4,4,0,16.252867791976314,,,,,,,,,,,,,,,,,,,,,,,,,,,,,,,16.19680591695942,16.252867791976314,16.252867791976314,16.252867791976314,16.697051499970257,16.697051499970257,16.697051499970257,16.697051499970257,17.394599082996137,17.58732670795871,17.996409166953526,b,1,1.7426104170153849,None,0.5426104170153849,17.99675395799568,18.00895483297063,18.00895483297063,18.705515999987256,space,0.687598541029729,None,,,,,,,,06,07,True,,Yes,/Users/alexandergottker/Desktop/NOWA_school/choice_rtt/sourcedata,2024-02-13_16h00.25.018,Crtt_exp,2023.2.3,120.30069105192472,2024-02-13 16h00.39.298995 +0100,
../../stimuli/target_square.jpg,0,5,5,2,18.763703332981095,,,,,,,,,,,,,,,,,,,,,,,,,,,,,,,18.706430166959763,18.763703332981095,18.763703332981095,18.763703332981095,19.2037240829668,19.2037240829668,19.2037240829668,19.2037240829668,19.903738666966092,20.09388229198521,20.314268166956026,v,1,1.5491552079911344,None,0.3491552079911344,20.314638582989573,20.325382291979622,20.325382291979622,21.78189579199534,space,1.4472514169756323,None,,,,,,,,06,07,True,,Yes,/Users/alexandergottker/Desktop/NOWA_school/choice_rtt/sourcedata,2024-02-13_16h00.25.018,Crtt_exp,2023.2.3,120.30069105192472,2024-02-13 16h00.39.298995 +0100,
,,,,,,,,,,,,,,,,,,,,,,,,,,,,,,,,,,,,,,,,,,,,,,,,,,,,,,,,,,,21.782228582946118,21.787564749945886,21.787564749945886,22.640415166970342,space,0.8505964580108412,None,06,07,True,,Yes,/Users/alexandergottker/Desktop/NOWA_school/choice_rtt/sourcedata,2024-02-13_16h00.25.018,Crtt_exp,2023.2.3,120.30069105192472,2024-02-13 16h00.39.298995 +0100,
